%YAML 1.1
%TAG !u! tag:unity3d.com,2011:
--- !u!74 &7400000
AnimationClip:
  m_ObjectHideFlags: 0
  m_CorrespondingSourceObject: {fileID: 0}
  m_PrefabInstance: {fileID: 0}
  m_PrefabAsset: {fileID: 0}
  m_Name: L_Parpadea
  serializedVersion: 6
  m_Legacy: 0
  m_Compressed: 0
  m_UseHighQualityCurve: 1
  m_RotationCurves: []
  m_CompressedRotationCurves: []
  m_EulerCurves: []
  m_PositionCurves: []
  m_ScaleCurves: []
  m_FloatCurves:
  - curve:
      serializedVersion: 2
      m_Curve:
      - serializedVersion: 3
        time: 0
        value: 1
        inSlope: Infinity
        outSlope: Infinity
        tangentMode: 103
        weightedMode: 0
        inWeight: 0
        outWeight: 0
      - serializedVersion: 3
        time: 0.1
        value: 0
        inSlope: Infinity
        outSlope: Infinity
        tangentMode: 103
        weightedMode: 0
        inWeight: 0
        outWeight: 0
      - serializedVersion: 3
        time: 0.15
        value: 1
        inSlope: Infinity
        outSlope: Infinity
        tangentMode: 103
        weightedMode: 0
        inWeight: 0
        outWeight: 0
      - serializedVersion: 3
        time: 0.2
        value: 0
        inSlope: Infinity
        outSlope: Infinity
        tangentMode: 103
        weightedMode: 0
        inWeight: 0
        outWeight: 0
      - serializedVersion: 3
        time: 0.26666668
        value: 1
        inSlope: Infinity
        outSlope: Infinity
        tangentMode: 103
        weightedMode: 0
        inWeight: 0
        outWeight: 0
      - serializedVersion: 3
        time: 0.31666666
        value: 0
        inSlope: Infinity
        outSlope: Infinity
        tangentMode: 103
        weightedMode: 0
        inWeight: 0
        outWeight: 0
      - serializedVersion: 3
        time: 0.4
        value: 1
        inSlope: Infinity
        outSlope: Infinity
        tangentMode: 103
        weightedMode: 0
        inWeight: 0
        outWeight: 0
      - serializedVersion: 3
        time: 0.96666664
        value: 1
        inSlope: Infinity
        outSlope: Infinity
        tangentMode: 103
        weightedMode: 0
        inWeight: 0
        outWeight: 0
      m_PreInfinity: 2
      m_PostInfinity: 2
      m_RotationOrder: 4
    attribute: m_IsActive
    path: Point Light (3)
    classID: 1
    script: {fileID: 0}
  m_PPtrCurves:
  - curve:
    - time: 0
      value: {fileID: 2100000, guid: 1333ef2bb1b9a334bb60e26f68a7244d, type: 2}
    - time: 0.1
      value: {fileID: 2100000, guid: 2e098388f94e67048899d445cbc84d25, type: 2}
    - time: 0.15
      value: {fileID: 2100000, guid: 1333ef2bb1b9a334bb60e26f68a7244d, type: 2}
    - time: 0.2
      value: {fileID: 2100000, guid: 2e098388f94e67048899d445cbc84d25, type: 2}
    - time: 0.26666668
      value: {fileID: 2100000, guid: 1333ef2bb1b9a334bb60e26f68a7244d, type: 2}
    - time: 0.31666666
      value: {fileID: 2100000, guid: 2e098388f94e67048899d445cbc84d25, type: 2}
    - time: 0.4
      value: {fileID: 2100000, guid: 1333ef2bb1b9a334bb60e26f68a7244d, type: 2}
    - time: 0.96666664
      value: {fileID: 2100000, guid: 1333ef2bb1b9a334bb60e26f68a7244d, type: 2}
    attribute: m_Materials.Array.data[0]
    path: HotelSign
    classID: 23
    script: {fileID: 0}
  - curve:
    - time: 0
      value: {fileID: 2100000, guid: 13ff0e335923ea04caad6937bf554b5f, type: 2}
    - time: 0.1
      value: {fileID: 2100000, guid: be85eb68e5718c548b5f2232005b1095, type: 2}
    - time: 0.15
      value: {fileID: 2100000, guid: 13ff0e335923ea04caad6937bf554b5f, type: 2}
    - time: 0.2
      value: {fileID: 2100000, guid: be85eb68e5718c548b5f2232005b1095, type: 2}
    - time: 0.26666668
      value: {fileID: 2100000, guid: 13ff0e335923ea04caad6937bf554b5f, type: 2}
    - time: 0.31666666
      value: {fileID: 2100000, guid: be85eb68e5718c548b5f2232005b1095, type: 2}
    - time: 0.4
      value: {fileID: 2100000, guid: 13ff0e335923ea04caad6937bf554b5f, type: 2}
    - time: 0.96666664
      value: {fileID: 2100000, guid: 13ff0e335923ea04caad6937bf554b5f, type: 2}
    attribute: m_Materials.Array.data[0]
    path: HotelSignIluminacion
    classID: 23
    script: {fileID: 0}
  m_SampleRate: 60
  m_WrapMode: 0
  m_Bounds:
    m_Center: {x: 0, y: 0, z: 0}
    m_Extent: {x: 0, y: 0, z: 0}
  m_ClipBindingConstant:
    genericBindings:
    - serializedVersion: 2
      path: 3153274593
      attribute: 2086281974
      script: {fileID: 0}
      typeID: 1
      customType: 0
      isPPtrCurve: 0
    - serializedVersion: 2
      path: 2287736551
      attribute: 0
      script: {fileID: 0}
      typeID: 23
      customType: 21
      isPPtrCurve: 1
    - serializedVersion: 2
      path: 1660780698
      attribute: 0
      script: {fileID: 0}
      typeID: 23
      customType: 21
      isPPtrCurve: 1
    pptrCurveMapping:
    - {fileID: 2100000, guid: 1333ef2bb1b9a334bb60e26f68a7244d, type: 2}
    - {fileID: 2100000, guid: 2e098388f94e67048899d445cbc84d25, type: 2}
    - {fileID: 2100000, guid: 1333ef2bb1b9a334bb60e26f68a7244d, type: 2}
    - {fileID: 2100000, guid: 2e098388f94e67048899d445cbc84d25, type: 2}
    - {fileID: 2100000, guid: 1333ef2bb1b9a334bb60e26f68a7244d, type: 2}
    - {fileID: 2100000, guid: 2e098388f94e67048899d445cbc84d25, type: 2}
    - {fileID: 2100000, guid: 1333ef2bb1b9a334bb60e26f68a7244d, type: 2}
    - {fileID: 2100000, guid: 1333ef2bb1b9a334bb60e26f68a7244d, type: 2}
    - {fileID: 2100000, guid: 13ff0e335923ea04caad6937bf554b5f, type: 2}
    - {fileID: 2100000, guid: be85eb68e5718c548b5f2232005b1095, type: 2}
    - {fileID: 2100000, guid: 13ff0e335923ea04caad6937bf554b5f, type: 2}
    - {fileID: 2100000, guid: be85eb68e5718c548b5f2232005b1095, type: 2}
    - {fileID: 2100000, guid: 13ff0e335923ea04caad6937bf554b5f, type: 2}
    - {fileID: 2100000, guid: be85eb68e5718c548b5f2232005b1095, type: 2}
    - {fileID: 2100000, guid: 13ff0e335923ea04caad6937bf554b5f, type: 2}
    - {fileID: 2100000, guid: 13ff0e335923ea04caad6937bf554b5f, type: 2}
  m_AnimationClipSettings:
    serializedVersion: 2
    m_AdditiveReferencePoseClip: {fileID: 0}
    m_AdditiveReferencePoseTime: 0
    m_StartTime: 0
    m_StopTime: 0.9833333
    m_OrientationOffsetY: 0
    m_Level: 0
    m_CycleOffset: 0
    m_HasAdditiveReferencePose: 0
    m_LoopTime: 1
    m_LoopBlend: 0
    m_LoopBlendOrientation: 0
    m_LoopBlendPositionY: 0
    m_LoopBlendPositionXZ: 0
    m_KeepOriginalOrientation: 0
    m_KeepOriginalPositionY: 1
    m_KeepOriginalPositionXZ: 0
    m_HeightFromFeet: 0
    m_Mirror: 0
  m_EditorCurves:
  - curve:
      serializedVersion: 2
      m_Curve:
      - serializedVersion: 3
        time: 0
        value: 1
        inSlope: Infinity
        outSlope: Infinity
        tangentMode: 103
        weightedMode: 0
        inWeight: 0
        outWeight: 0
      - serializedVersion: 3
        time: 0.1
        value: 0
        inSlope: Infinity
        outSlope: Infinity
        tangentMode: 103
        weightedMode: 0
        inWeight: 0
        outWeight: 0
      - serializedVersion: 3
        time: 0.15
        value: 1
        inSlope: Infinity
        outSlope: Infinity
        tangentMode: 103
        weightedMode: 0
        inWeight: 0
        outWeight: 0
      - serializedVersion: 3
        time: 0.2
        value: 0
        inSlope: Infinity
        outSlope: Infinity
        tangentMode: 103
        weightedMode: 0
        inWeight: 0
        outWeight: 0
      - serializedVersion: 3
        time: 0.26666668
        value: 1
        inSlope: Infinity
        outSlope: Infinity
        tangentMode: 103
        weightedMode: 0
        inWeight: 0
        outWeight: 0
      - serializedVersion: 3
        time: 0.31666666
        value: 0
        inSlope: Infinity
        outSlope: Infinity
        tangentMode: 103
        weightedMode: 0
        inWeight: 0
        outWeight: 0
      - serializedVersion: 3
        time: 0.4
        value: 1
        inSlope: Infinity
        outSlope: Infinity
        tangentMode: 103
        weightedMode: 0
        inWeight: 0
        outWeight: 0
      - serializedVersion: 3
        time: 0.96666664
        value: 1
        inSlope: Infinity
        outSlope: Infinity
        tangentMode: 103
        weightedMode: 0
        inWeight: 0
        outWeight: 0
      m_PreInfinity: 2
      m_PostInfinity: 2
      m_RotationOrder: 4
    attribute: m_IsActive
    path: Point Light (3)
    classID: 1
    script: {fileID: 0}
  m_EulerEditorCurves: []
  m_HasGenericRootTransform: 0
  m_HasMotionFloatCurves: 0
  m_Events: []
