%YAML 1.1
%TAG !u! tag:unity3d.com,2011:
--- !u!74 &7400000
AnimationClip:
  m_ObjectHideFlags: 0
  m_CorrespondingSourceObject: {fileID: 0}
  m_PrefabInstance: {fileID: 0}
  m_PrefabAsset: {fileID: 0}
  m_Name: Lata_1
  serializedVersion: 6
  m_Legacy: 0
  m_Compressed: 0
  m_UseHighQualityCurve: 1
  m_RotationCurves: []
  m_CompressedRotationCurves: []
  m_EulerCurves: []
  m_PositionCurves: []
  m_ScaleCurves: []
  m_FloatCurves: []
  m_PPtrCurves:
  - curve:
    - time: 0
      value: {fileID: 21300000, guid: bb8b3b38646d36341919d37acdc2bf7a, type: 3}
    - time: 0.033333335
      value: {fileID: 21300000, guid: 62e0d6a0c6497c144834970e3146a2bf, type: 3}
    - time: 0.083333336
      value: {fileID: 21300000, guid: 3dac14eda226cfe4b89140f11f42dff7, type: 3}
    - time: 0.11666667
      value: {fileID: 21300000, guid: 1771689f68f68d940937396236cbbf6d, type: 3}
    - time: 0.15
      value: {fileID: 21300000, guid: c02ed8f7c03d6974dba15741efde8951, type: 3}
    - time: 0.18333334
      value: {fileID: 21300000, guid: 30ab7cdb55b0a574d9db45dc51cae3d2, type: 3}
    - time: 0.23333333
      value: {fileID: 21300000, guid: 5fa5a5facae2cf2488a7d38bb69ef626, type: 3}
    - time: 0.26666668
      value: {fileID: 21300000, guid: 49136f509a45e5048a744175dbb99f1f, type: 3}
    - time: 0.3
      value: {fileID: 21300000, guid: 310a7ee86b05a0348868985e3df9fc3e, type: 3}
    - time: 0.33333334
      value: {fileID: 21300000, guid: 78bb1dae17f790846aae3737ef8012f2, type: 3}
    - time: 0.38333333
      value: {fileID: 21300000, guid: e22f717bfb93f1743b5b37c70c4828e7, type: 3}
    - time: 0.41666666
      value: {fileID: 21300000, guid: 4bf4c609d1dae1c4d807eaa4df972e76, type: 3}
    - time: 0.45
      value: {fileID: 21300000, guid: 7d123484cb6e3a74182c509ad2de6b59, type: 3}
    - time: 0.48333332
      value: {fileID: 21300000, guid: da8eaa5523cd51849b275199d2fd79ac, type: 3}
    - time: 0.53333336
      value: {fileID: 21300000, guid: ed327ea4c81e93440b2bea018d8b38b6, type: 3}
    - time: 0.56666666
      value: {fileID: 21300000, guid: 761f7f5de2b093546bd03714e6a52d48, type: 3}
    - time: 0.6
      value: {fileID: 21300000, guid: 9fbb9bc67acbc0144b034b7e04ff0a0e, type: 3}
    - time: 0.6333333
      value: {fileID: 21300000, guid: afeccc2b25164334c8b25ef0ec9e3b43, type: 3}
    - time: 0.68333334
      value: {fileID: 21300000, guid: 80e5718629a5408498257c10b0f9ddaf, type: 3}
    - time: 0.71666664
      value: {fileID: 21300000, guid: b894aaeaec8a368488c0b865f5b088ab, type: 3}
    - time: 0.75
      value: {fileID: 21300000, guid: f546919f138ea774a90d933a7159017d, type: 3}
    - time: 0.78333336
      value: {fileID: 21300000, guid: 2c557c9d1a4e664489944319fc7c8c8d, type: 3}
    - time: 0.8333333
      value: {fileID: 21300000, guid: 8b5a83cb7d57c8642a5d0a2a54cc9f40, type: 3}
    - time: 0.8666667
      value: {fileID: 21300000, guid: ff195d99d7f25ae499c7f140b8354fe8, type: 3}
    - time: 0.9
      value: {fileID: 21300000, guid: 5c01e390cfcb25841a6f5c7fd484d843, type: 3}
    - time: 0.93333334
      value: {fileID: 21300000, guid: 48420c927ce17be408b7386e89a9b5e1, type: 3}
    - time: 0.98333335
      value: {fileID: 21300000, guid: 004852d59ee8b2b44b0a1ae2268eaeea, type: 3}
    - time: 1.4
      value: {fileID: 21300000, guid: 0f03ce88c7ef68a4c80a9e332b689a6b, type: 3}
    - time: 1.45
      value: {fileID: 21300000, guid: 34bf6772ee67b774f8d1c654abcb698c, type: 3}
    - time: 1.5
      value: {fileID: 21300000, guid: ae29c064869be884eb71641cc6b1f0f4, type: 3}
    - time: 1.55
      value: {fileID: 21300000, guid: 7d5e7f3a51e643449ac57a0ee2b6a70c, type: 3}
    - time: 1.6
      value: {fileID: 21300000, guid: a469fd1b10b30004b8c88200337525bd, type: 3}
    - time: 1.6333333
      value: {fileID: 21300000, guid: 3f0884cdc9eea094c9ccfd01a28f4008, type: 3}
    - time: 1.7
      value: {fileID: 21300000, guid: 1fe9e0f5afd0c764da2c32e8891d2a5a, type: 3}
    - time: 1.75
      value: {fileID: 21300000, guid: 0afcde690296f4b41bd9e268114a2ad8, type: 3}
    - time: 1.7833333
      value: {fileID: 21300000, guid: 00ffb2ee186f1684b8ac269e768f5a7a, type: 3}
    - time: 1.8333334
      value: {fileID: 21300000, guid: 96b0660830f0a3f42bc9ff6e0d7a4e9f, type: 3}
    - time: 1.9
      value: {fileID: 21300000, guid: 75a06da6014f9d546a9bb68a07ceb2fa, type: 3}
    - time: 1.9333333
      value: {fileID: 21300000, guid: 6e5732349b8c9c248b30f102f971b4db, type: 3}
    - time: 1.9833333
      value: {fileID: 21300000, guid: 4cb1e0479f916224db509e91412a6311, type: 3}
    - time: 2.0333333
      value: {fileID: 21300000, guid: fa4d34a43d8ed8641aace7e303db0d5c, type: 3}
    - time: 2.0833333
      value: {fileID: 21300000, guid: 7cadf8a6b653a3e43babad486e5a4175, type: 3}
    - time: 2.1333334
      value: {fileID: 21300000, guid: cc99933d714c45944900bc2c210c8c4d, type: 3}
    attribute: m_Sprite
    path: 
    classID: 212
    script: {fileID: 0}
  m_SampleRate: 60
  m_WrapMode: 0
  m_Bounds:
    m_Center: {x: 0, y: 0, z: 0}
    m_Extent: {x: 0, y: 0, z: 0}
  m_ClipBindingConstant:
    genericBindings:
    - serializedVersion: 2
      path: 0
      attribute: 0
      script: {fileID: 0}
      typeID: 212
      customType: 23
      isPPtrCurve: 1
    pptrCurveMapping:
    - {fileID: 21300000, guid: bb8b3b38646d36341919d37acdc2bf7a, type: 3}
    - {fileID: 21300000, guid: 62e0d6a0c6497c144834970e3146a2bf, type: 3}
    - {fileID: 21300000, guid: 3dac14eda226cfe4b89140f11f42dff7, type: 3}
    - {fileID: 21300000, guid: 1771689f68f68d940937396236cbbf6d, type: 3}
    - {fileID: 21300000, guid: c02ed8f7c03d6974dba15741efde8951, type: 3}
    - {fileID: 21300000, guid: 30ab7cdb55b0a574d9db45dc51cae3d2, type: 3}
    - {fileID: 21300000, guid: 5fa5a5facae2cf2488a7d38bb69ef626, type: 3}
    - {fileID: 21300000, guid: 49136f509a45e5048a744175dbb99f1f, type: 3}
    - {fileID: 21300000, guid: 310a7ee86b05a0348868985e3df9fc3e, type: 3}
    - {fileID: 21300000, guid: 78bb1dae17f790846aae3737ef8012f2, type: 3}
    - {fileID: 21300000, guid: e22f717bfb93f1743b5b37c70c4828e7, type: 3}
    - {fileID: 21300000, guid: 4bf4c609d1dae1c4d807eaa4df972e76, type: 3}
    - {fileID: 21300000, guid: 7d123484cb6e3a74182c509ad2de6b59, type: 3}
    - {fileID: 21300000, guid: da8eaa5523cd51849b275199d2fd79ac, type: 3}
    - {fileID: 21300000, guid: ed327ea4c81e93440b2bea018d8b38b6, type: 3}
    - {fileID: 21300000, guid: 761f7f5de2b093546bd03714e6a52d48, type: 3}
    - {fileID: 21300000, guid: 9fbb9bc67acbc0144b034b7e04ff0a0e, type: 3}
    - {fileID: 21300000, guid: afeccc2b25164334c8b25ef0ec9e3b43, type: 3}
    - {fileID: 21300000, guid: 80e5718629a5408498257c10b0f9ddaf, type: 3}
    - {fileID: 21300000, guid: b894aaeaec8a368488c0b865f5b088ab, type: 3}
    - {fileID: 21300000, guid: f546919f138ea774a90d933a7159017d, type: 3}
    - {fileID: 21300000, guid: 2c557c9d1a4e664489944319fc7c8c8d, type: 3}
    - {fileID: 21300000, guid: 8b5a83cb7d57c8642a5d0a2a54cc9f40, type: 3}
    - {fileID: 21300000, guid: ff195d99d7f25ae499c7f140b8354fe8, type: 3}
    - {fileID: 21300000, guid: 5c01e390cfcb25841a6f5c7fd484d843, type: 3}
    - {fileID: 21300000, guid: 48420c927ce17be408b7386e89a9b5e1, type: 3}
    - {fileID: 21300000, guid: 004852d59ee8b2b44b0a1ae2268eaeea, type: 3}
    - {fileID: 21300000, guid: 0f03ce88c7ef68a4c80a9e332b689a6b, type: 3}
    - {fileID: 21300000, guid: 34bf6772ee67b774f8d1c654abcb698c, type: 3}
    - {fileID: 21300000, guid: ae29c064869be884eb71641cc6b1f0f4, type: 3}
    - {fileID: 21300000, guid: 7d5e7f3a51e643449ac57a0ee2b6a70c, type: 3}
    - {fileID: 21300000, guid: a469fd1b10b30004b8c88200337525bd, type: 3}
    - {fileID: 21300000, guid: 3f0884cdc9eea094c9ccfd01a28f4008, type: 3}
    - {fileID: 21300000, guid: 1fe9e0f5afd0c764da2c32e8891d2a5a, type: 3}
    - {fileID: 21300000, guid: 0afcde690296f4b41bd9e268114a2ad8, type: 3}
    - {fileID: 21300000, guid: 00ffb2ee186f1684b8ac269e768f5a7a, type: 3}
    - {fileID: 21300000, guid: 96b0660830f0a3f42bc9ff6e0d7a4e9f, type: 3}
    - {fileID: 21300000, guid: 75a06da6014f9d546a9bb68a07ceb2fa, type: 3}
    - {fileID: 21300000, guid: 6e5732349b8c9c248b30f102f971b4db, type: 3}
    - {fileID: 21300000, guid: 4cb1e0479f916224db509e91412a6311, type: 3}
    - {fileID: 21300000, guid: fa4d34a43d8ed8641aace7e303db0d5c, type: 3}
    - {fileID: 21300000, guid: 7cadf8a6b653a3e43babad486e5a4175, type: 3}
    - {fileID: 21300000, guid: cc99933d714c45944900bc2c210c8c4d, type: 3}
  m_AnimationClipSettings:
    serializedVersion: 2
    m_AdditiveReferencePoseClip: {fileID: 0}
    m_AdditiveReferencePoseTime: 0
    m_StartTime: 0
    m_StopTime: 2.15
    m_OrientationOffsetY: 0
    m_Level: 0
    m_CycleOffset: 0
    m_HasAdditiveReferencePose: 0
    m_LoopTime: 1
    m_LoopBlend: 0
    m_LoopBlendOrientation: 0
    m_LoopBlendPositionY: 0
    m_LoopBlendPositionXZ: 0
    m_KeepOriginalOrientation: 0
    m_KeepOriginalPositionY: 1
    m_KeepOriginalPositionXZ: 0
    m_HeightFromFeet: 0
    m_Mirror: 0
  m_EditorCurves: []
  m_EulerEditorCurves: []
  m_HasGenericRootTransform: 0
  m_HasMotionFloatCurves: 0
  m_Events: []
